{
  "type": "service_account",
  "project_id": "pc-api-5675266110432551074-17",
  "private_key_id": "24e8862204a6ed193ec91c43b6426c5f97b8b8d4",
  "private_key": "-----BEGIN PRIVATE KEY-----\nMIIEvgIBADANBgkqhkiG9w0BAQEFAASCBKgwggSkAgEAAoIBAQCdPfG9UsjPqyUe\ncQU08SjipVDcGHC6kEyG880N/2DH2qeEWvqC8HMHlHp/r6hWK2idAjvYFfBGNR6/\nKS6Mb2nrYLCOdPV21cu4Z4WxZ9qnqutX0ACdf2KfOu64e007EjL6I9vw2K5LLaW2\njyPBp/9YC6b85NTxo4mlPM/Kw0SVSkSTLZ6oNMRxp91c1NFXyb74Oh0RapjS9IZ3\ne8yNH3ctVzt09CnjLU2MCOEJb/2Mqen1OAMF9Ykk+4dqcbjJeJ+7LcqXx9pJUlYk\nIxsXH03qf5JrIbzPIGfUCTzp/oWeeScoh83+LzToBFmpUp9jRHn/oJ6OelySkDq3\ne0kUgM1JAgMBAAECggEABZmo0BGAW64Yo7eKhA7RQhY5dadMr4ZXZWiOPXECo0eR\nNwxu9uYlsKfL/5tz20LPRmVHmJv6a2O1sUEAGooWy4Ztb1twyR9W8r3EJBQC9H0I\nxf8/YFyiuHFWwn0IvIF6zZAko5SyC3UoHWMGdt2bAWmj1Ea5o1QL4VXTwEDZYtg8\nnV5MruMyexjQa9E8VVdSrrMCZdApDXjdlntgefPhlJSesdII8ux+EPrTTKSETppx\nRcotXjfeMeHNw3NuixVGXyGQlIx7iKjji2WIIWXE40e0IwgQG1WLV9yHZHe8FBYm\nj1xRFWFj+AQmjC9ZwYHC5s4ER+GzJNY8jj/6Lea+EQKBgQDUt/y7lhPeFRF8/Sgl\ndXrYJW+ejoJJvK7tPzFrVfNApE6SiFZiac/GGDptm4e0DA5rX4SpXapm79TY9U6b\nttMCW6PQJOyNCp8ZKXX9SprGBkZuAyn68ZDbASBH7e7EdJDhCaoKd9Bh03Uk+Npp\nKBQ9pI/djttrIu+h8ztX4GrbGQKBgQC9PE5C1uqAMVCbLHOp+E8JQnLaAGKnm/op\nWi9ERAjFHqOI6zhd7ZogdHZyD9abcgU5GzXjx5ua4TwNc3v65KFCkiXxf13c/REg\ndZMiOJ2PjL7nCx4ymO1tjH9kcb6rs0e30DbCVoNPBo/+dVZehpbq0TlaOoGBdydA\nN7HrDCT5sQKBgQCdKE2Vvdxx0Hj6MgMOIcyfkpDzwO/rUHagm3aEiZzNXlcalZXU\n4b366f2I60aIM/wXQhu+EZCKupgzrpDkJF+jN1dAuXb3ASjoKySb/Rl6QjqYnsfO\nOdi+pQdXfSdRh5leWYiCcWDIVbUPmreqx0yk+ka79waPEeGfchee5hOsSQKBgQCF\n0/xU8MDu3/FtjEZQUjczCTdITTV366tDS3BaCvNY1I466n72jm6NvU924xSW4lAn\nTsMRz7yQD/H0YVOw37fb6JfE7ppnCuHt3rirXvau6o6nvwkgJ17iNpZxZq+9phB2\nQl43mg9K+A0lm731I6Hfdw/ka7Pi521u0PSWkgQkQQKBgAeSV70DPOuge31opg2M\nYBk7rst0O855Qdcza106Or2MpdTSrm3UhgrOvHkzNd75T2zmP288MCJULRy1iaNl\ncQbDbc5lTlIaYlVAN2jiap3uxVFrqq4B5nFDZlqYtrghytMz0HzQEkkfqFIxh28g\nJP+4zne1qg4LkCT3QuoQPrLi\n-----END PRIVATE KEY-----\n",
  "client_email": "mdaware-fastlane@pc-api-5675266110432551074-17.iam.gserviceaccount.com",
  "client_id": "107029406542175811085",
  "auth_uri": "https://accounts.google.com/o/oauth2/auth",
  "token_uri": "https://oauth2.googleapis.com/token",
  "auth_provider_x509_cert_url": "https://www.googleapis.com/oauth2/v1/certs",
  "client_x509_cert_url": "https://www.googleapis.com/robot/v1/metadata/x509/mdaware-fastlane%40pc-api-5675266110432551074-17.iam.gserviceaccount.com"
}
